﻿{
    "urls": [
        {
            "name": "南博兔①/关注抖音号",
            "url": "https://gitee.com/langli-little-white-dragon-1/little-white-dragon/raw/master/n2.json "
        },
        {
            "name": "南博兔②/1158012313",
            "url": "https://gitee.com/langli-little-white-dragon-1/little-white-dragon/raw/master/n22.json"
        },
        {
            "url": "https://gitee.com/langli-little-white-dragon-1/little-white-dragon/raw/master/n2.json",
            "name": "南博兔③/各种高配机顶盒"
        },
        {
            "url": "https://gitee.com/langli-little-white-dragon-1/little-white-dragon/raw/master/n2.json",
            "name": "南博兔④/海量免费软件"
        },
        {
            "name": "毒盒影视",
            "url": "https://tv.youdu.fan:666/毒盒影视/"
        },
        {
            "name": "开心影视",
            "url": "http://rihou.cc:55/天天开心"
        },
        {
            "name": "🍭环宇轩弹幕🍭",
            "url": "https://www.891218.xyz/free/jk/hyxuandm.json"
        },
        {
            "name": "畅享影视",
            "url": "https://codeberg.org/looktv/4K/raw/branch/main/4k.json"
        },
        {
            "name": "网盘资源接口",
            "url": "https://codeberg.org/0077/tv/raw/branch/main/hm.json"
        },
        {
            "url": "https://pan.shangui.cc/f/gyVYFV/乌鸦不太黑.json",
            "name": "🐦乌鸦影视"
        },
        {
            "name": "🐱肥猫宝贝🐱",
            "url": "http://我不是.肥猫.live/接口禁止贩卖"
        },
        {
            "name": "🐬摸鱼影视",
            "url": "http://xiyan1213.eu.org/"
        },
        {
            "name": "🎯豆瓣影视🎯",
            "url": "http://111.67.196.181/"
        },
        {
            "name": "☁️云星日记",
            "url": "http://itvbox.cc/tvbox/云星日记/1.m3u8"
        },
        {
            "name": "乐享汇主线🧵",
            "url": "https://github.moeyy.xyz/raw.githubusercontent.com/lxhfans/TV/master/tv1.txt"
        },
        {
            "name": "短剧超爽",
            "url": "https://github.moeyy.xyz/raw.githubusercontent.com/lxhfans/DEMO/master/duanju.json"
        },
        {
            "name": "🍭环宇轩4k🍭",
            "url": "http://www.891218.xyz/free/jk/hyxuan2.json"
        },
        {
            "name": "🎯壹梦影视🎯",
            "url": "http://qrh.yimkj.cn/ym/壹梦.json"
        },
        {
            "name": "🎯文坤影视🎯",
            "url": "http://qrh.yimkj.cn/wk/文坤.json"
        },
        {
            "name": "🥇黄金影视🥇",
            "url": "https://gitlab.com/lzc1021lzc/hjfggzs.hjys/-/raw/main/hjysdb.json"
        },
        {
            "name": "💚青木影视🌲",
            "url": "https://pan.shangui.cc/f/NqmNUj/Aoki.json"
        },
        {
            "name": "💚酷玩影视💚",
            "url": "http://qrh.yimkj.cn/kw/酷玩.json"
        },
        {
            "url": "https://jihulab.com/BeiYu1379/kw/-/raw/main/Jy.json",
            "name": "嘉月贰拾柒🌺"
        },
        {
            "url": "http://xhww.fun:63/小米/DEMO.json ",
            "name": "小爆脾气"
        },
        {
            "name": "💚儿童动漫💜",
            "url": "https://d.kstore.space/download/4928/mfsj/srpd.json"
        },
        {
            "url": "https://download.kstore.space/download/3313/app/ymzn",
            "name": "夜猫影视🐱"
        },
        {
            "url": "https://agit.ai/hu/hcr/raw/branch/master/短剧.json",
            "name": "短剧超爽😂"
        },
        {
            "name": "💚冉神影视💚",
            "url": "https://download.kstore.space/download/5242/冉神.json"
        },
        {
            "name": "💕万达影视💕",
            "url": "http://sinopacifichk.com/box/56.txt"
        },
        {
            "name": "👿心魔影视👿",
            "url": "https://jihulab.com/yw88075/tvbox/-/raw/main/dr/js.json"
        },
        {
            "name": "🍵荷城茶秀🍵",
            "url": "http://rihou.vip:88/荷城茶秀"
        },
        {
            "name": "💕恒星影视💕",
            "url": "https://atomgit.com/hengxing/hx/raw/master/hxzx.txt"
        },
        {
            "name": "🛰️天微影视🛰️",
            "url": "http://hm16458.k785.icu/tvys/svip.json"
        },
        {
            "name": "🔥火影影视🔥",
            "url": "http://jar.lingutv.cn/tvbox/yw/yw.json"
        },
        {
            "name": "🕵️柯南影视🕵️",
            "url": "https://codeberg.org/wert/1/raw/branch/main/%E6%9F%AF%E5%8D%97%E5%BD%B1%E8%A7%86.json"
        },
        {
            "name": "🍚饭太硬",
            "url": "http://饭太硬.top/tv"
        },
        {
            "name": "🐼肥猫",
            "url": "http://我不是.肥猫.love:63/接口禁止贩卖"
        },
        {
            "name": "💝爱TV吧",
            "url": "http://tt.58cxz.com/001.json"
        },
        {
            "name": "🍃吾爱",
            "url": "http://52bsj.vip:98/wuai"
        },
        {
            "name": "💞多多",
            "url": "https://yydsys.top/duo"
        },
        {
            "name": "🌙月光宝盒",
            "url": "http://52bsj.vip:98/cl"
        },
        {
            "name": "🎬影探",
            "url": "http://www.lyyytv.cn/yt/yt.json"
        },
        {
            "name": "💠欧歌",
            "url": "http://tv.nxog.top/m/111.php?ou=公众号欧歌app&mz=index2&jar=index2&123&b=欧歌"
        },
        {
            "name": "🛡大卫",
            "url": "https://xhdwc.tk/0"
        },
        {
            "name": "💮巴不巴拉",
            "url": "https://bjson.cf/balabala"
        },
        {
            "name": "🌼菜妮丝",
            "url": "https://tvbox.cainisi.cf"
        },
        {
            "name": "🐯catbox",
            "url": "https://agit.ai/ddx/TVBox/raw/branch/master/catbox.json"
        },
        {
            "name": "🍀俊宇",
            "url": "http://home.jundie.top:81/top98.json"
        },
        {
            "name": "🌼dxawi",
            "url": "http://dxawi.github.io/0/0.json"
        },
        {
            "name": "👹不良帅",
            "url": "https://notabug.org/qizhen15800/My9394/raw/master/ProfessionalEdition.m3u8"
        },
        {
            "name": "✨元兴",
            "url": "https://freed.yuanhsing.cf/TVBox/meowcf.json"
        },
        {
            "name": "🐱猫爪",
            "url": "https://codeberg.org/AK47/drpy-js/raw/branch/main/js.json"
        },
        {
            "name": "🐶二哈",
            "url": "https://codeberg.org/jgfx/2hacc/raw/branch/main/tvbox.json"
        },
        {
            "name": "👻魔改",
            "url": "https://download.kstore.space/download/2883/m3u8/dsj/guochan/mp1/1.m3u8"
        },
        {
            "name": "🅰️ABC",
            "url": "https://agit.ai/n/b/raw/branch/a/b/c.json"
        },
        {
            "name": "🐈猫技",
            "url": "https://m.n13.club/"
        },
        {
            "name": "📽️catvod",
            "url": "https://agit.ai/ddx/TVBox/raw/branch/master/t4.json"
        },
        {
            "name": "🐥胖鸭",
            "url": "https://agit.ai/cyl518/yl/raw/branch/master/pytv.json"
        },
        {
            "name": "🐯于氏",
            "url": "https://agit.ai/sejinan/app/raw/branch/box/yu"
        },
        {
            "name": "🌪南风",
            "url": "https://agit.ai/Yoursmile7/TVBox/raw/branch/master/XC.json"
        },
        {
            "name": "💖恋影",
            "url": "https://www.lianyingtv.com/fast/fast"
        },
        {
            "name": "🌟星辰",
            "url": "http://8.210.232.168/xc.json"
        },
        {
            "name": "🕵️道长",
            "url": "https://pastebin.com/raw/5NHaxyGR"
        },
        {
            "name": "🤖阿里精品",
            "url": "https://yydsys.top/duo/ali"
        },
        {
            "name": "🐎小马",
            "url": "https://szyyds.cn/tv/x.json"
        },
        {
            "name": "💝OwenTV",
            "url": "https://jihulab.com/owen2000wy/owentv/-/raw/main/OwenTV.json"
        },
        {
            "name": "👭人人",
            "url": "https://agit.ai/376242575/zzh/raw/branch/master/txt/影视.txt"
        },
        {
            "name": "💧杂七杂八",
            "url": "https://la.kstore.space/download/3092/ff.json"
        }
    ]
}